<?xml version="1.0" encoding="UTF-8"?>
<!-- Generated by org.testng.reporters.JUnitReportReporter -->
<testsuite hostname="Alien" failures="0" tests="1" name="restAssured.CatsFreeAPI" time="1.506" errors="0" timestamp="2024-10-12T16:46:18 EDT" skipped="0">
  <testcase classname="restAssured.CatsFreeAPI" name="verify200Status" time="1.506">
    <system-out>
      <![CDATA[{
    "current_page": 1,
    "data": [
        {
            "breed": "Abyssinian",
            "country": "Ethiopia",
            "origin": "Natural/Standard",
            "coat": "Short",
            "pattern": "Ticked"
        }
    ],
    "first_page_url": "https://catfact.ninja/breeds?page=1",
    "from": 1,
    "last_page": 98,
    "last_page_url": "https://catfact.ninja/breeds?page=98",
    "links": [
        {
            "url": null,
            "label": "Previous",
            "active": false
        },
        {
            "url": "https://catfact.ninja/breeds?page=1",
            "label": "1",
            "active": true
        },
        {
            "url": "https://catfact.ninja/breeds?page=2",
            "label": "2",
            "active": false
        },
        {
            "url": "https://catfact.ninja/breeds?page=3",
            "label": "3",
            "active": false
        },
        {
            "url": "https://catfact.ninja/breeds?page=4",
            "label": "4",
            "active": false
        },
        {
            "url": "https://catfact.ninja/breeds?page=5",
            "label": "5",
            "active": false
        },
        {
            "url": "https://catfact.ninja/breeds?page=6",
            "label": "6",
            "active": false
        },
        {
            "url": "https://catfact.ninja/breeds?page=7",
            "label": "7",
            "active": false
        },
        {
            "url": "https://catfact.ninja/breeds?page=8",
            "label": "8",
            "active": false
        },
        {
            "url": "https://catfact.ninja/breeds?page=9",
            "label": "9",
            "active": false
        },
        {
            "url": "https://catfact.ninja/breeds?page=10",
            "label": "10",
            "active": false
        },
        {
            "url": null,
            "label": "...",
            "active": false
        },
        {
            "url": "https://catfact.ninja/breeds?page=97",
            "label": "97",
            "active": false
        },
        {
            "url": "https://catfact.ninja/breeds?page=98",
            "label": "98",
            "active": false
        },
        {
            "url": "https://catfact.ninja/breeds?page=2",
            "label": "Next",
            "active": false
        }
    ],
    "next_page_url": "https://catfact.ninja/breeds?page=2",
    "path": "https://catfact.ninja/breeds",
    "per_page": 1,
    "prev_page_url": null,
    "to": 1,
    "total": 98
}]]>
    </system-out>
  </testcase> <!-- verify200Status -->
  <system-out>
    <![CDATA[{
    "current_page": 1,
    "data": [
        {
            "breed": "Abyssinian",
            "country": "Ethiopia",
            "origin": "Natural/Standard",
            "coat": "Short",
            "pattern": "Ticked"
        }
    ],
    "first_page_url": "https://catfact.ninja/breeds?page=1",
    "from": 1,
    "last_page": 98,
    "last_page_url": "https://catfact.ninja/breeds?page=98",
    "links": [
        {
            "url": null,
            "label": "Previous",
            "active": false
        },
        {
            "url": "https://catfact.ninja/breeds?page=1",
            "label": "1",
            "active": true
        },
        {
            "url": "https://catfact.ninja/breeds?page=2",
            "label": "2",
            "active": false
        },
        {
            "url": "https://catfact.ninja/breeds?page=3",
            "label": "3",
            "active": false
        },
        {
            "url": "https://catfact.ninja/breeds?page=4",
            "label": "4",
            "active": false
        },
        {
            "url": "https://catfact.ninja/breeds?page=5",
            "label": "5",
            "active": false
        },
        {
            "url": "https://catfact.ninja/breeds?page=6",
            "label": "6",
            "active": false
        },
        {
            "url": "https://catfact.ninja/breeds?page=7",
            "label": "7",
            "active": false
        },
        {
            "url": "https://catfact.ninja/breeds?page=8",
            "label": "8",
            "active": false
        },
        {
            "url": "https://catfact.ninja/breeds?page=9",
            "label": "9",
            "active": false
        },
        {
            "url": "https://catfact.ninja/breeds?page=10",
            "label": "10",
            "active": false
        },
        {
            "url": null,
            "label": "...",
            "active": false
        },
        {
            "url": "https://catfact.ninja/breeds?page=97",
            "label": "97",
            "active": false
        },
        {
            "url": "https://catfact.ninja/breeds?page=98",
            "label": "98",
            "active": false
        },
        {
            "url": "https://catfact.ninja/breeds?page=2",
            "label": "Next",
            "active": false
        }
    ],
    "next_page_url": "https://catfact.ninja/breeds?page=2",
    "path": "https://catfact.ninja/breeds",
    "per_page": 1,
    "prev_page_url": null,
    "to": 1,
    "total": 98
}]]>
  </system-out>
</testsuite> <!-- restAssured.CatsFreeAPI -->
